{
  "project_info": {
    "project_number": "427454242260",
    "firebase_url": "https://justeat-ef365.firebaseio.com",
    "project_id": "justeat-ef365",
    "storage_bucket": "justeat-ef365.appspot.com"
  },
  "client": [
    {
      "client_info": {
        "mobilesdk_app_id": "1:427454242260:android:49ae1a9cf0bf988c",
        "android_client_info": {
          "package_name": "com.example.msrazan.justeat"
        }
      },
      "oauth_client": [
        {
          "client_id": "427454242260-rco0r1efqqttlio505u21osnjhvkpd0p.apps.googleusercontent.com",
          "client_type": 1,
          "android_info": {
            "package_name": "com.example.msrazan.justeat",
            "certificate_hash": "661e3641917cb374d565b478b0694d492858486b"
          }
        },
        {
          "client_id": "427454242260-8isiqknu2ifpg2bl4mlbdacauponttlh.apps.googleusercontent.com",
          "client_type": 3
        }
      ],
      "api_key": [
        {
          "current_key": "AIzaSyCoGHs8yIV2sDS4oM6owkcUi3BTsl3R4j4"
        }
      ],
      "services": {
        "analytics_service": {
          "status": 1
        },
        "appinvite_service": {
          "status": 2,
          "other_platform_oauth_client": [
            {
              "client_id": "427454242260-8isiqknu2ifpg2bl4mlbdacauponttlh.apps.googleusercontent.com",
              "client_type": 3
            }
          ]
        },
        "ads_service": {
          "status": 2
        }
      }
    },
    {
      "client_info": {
        "mobilesdk_app_id": "1:427454242260:android:78a23c8639e23725",
        "android_client_info": {
          "package_name": "com.example.msrazan.justeatserver"
        }
      },
      "oauth_client": [
        {
          "client_id": "427454242260-793li4h52ldsh3gvmtf9a1l51k77m3g2.apps.googleusercontent.com",
          "client_type": 1,
          "android_info": {
            "package_name": "com.example.msrazan.justeatserver",
            "certificate_hash": "661e3641917cb374d565b478b0694d492858486b"
          }
        },
        {
          "client_id": "427454242260-8isiqknu2ifpg2bl4mlbdacauponttlh.apps.googleusercontent.com",
          "client_type": 3
        }
      ],
      "api_key": [
        {
          "current_key": "AIzaSyCoGHs8yIV2sDS4oM6owkcUi3BTsl3R4j4"
        }
      ],
      "services": {
        "analytics_service": {
          "status": 1
        },
        "appinvite_service": {
          "status": 2,
          "other_platform_oauth_client": [
            {
              "client_id": "427454242260-8isiqknu2ifpg2bl4mlbdacauponttlh.apps.googleusercontent.com",
              "client_type": 3
            }
          ]
        },
        "ads_service": {
          "status": 2
        }
      }
    }
  ],
  "configuration_version": "1"
}